The Causal Impact of MinuteClinic Openings on Retail Sales: Evidence from Urban and Suburban Stores
…
# Donor Weights table
sdid_weights <- tibble(
  Store_ID = control_ids,
  Weight = as.numeric(w)
) %>%
  arrange(desc(Weight)) %>%
  mutate(Weight = round(Weight, 4)) %>%
  filter(Weight > 0.001)

sdid_weights

# A tibble: 59 × 2
   Store_ID Weight
      <int>  <dbl>
 1       24 0.0608
 2       31 0.054 
 3       29 0.0432
 4       16 0.0367
 5       41 0.0212
 6       33 0.0189
 7       22 0.0188
 8       19 0.0187
 9       52 0.018 
10       42 0.018 
# ℹ 49 more rows
…
